vending v2/test_run_dir/Vending_machine_test_should_pass/VendingMachine.vcd
$date
2023-05-02T14:32+0000
$end
$version
0.2
$end
$comment

$end
$timescale 1ns  $end
$scope module VendingMachine $end
 $var wire 1 ! REG_1 $end
 $var wire 7 " io_seg $end
 $var wire 7 # sevSeg $end
 $var wire 1 $ io_buy $end
 $var wire 1 % io_coin5 $end
 $var wire 1 & io_coin2 $end
 $var wire 5 ' io_price $end
 $var wire 2 ( io_an $end
 $var wire 5 ) sumReg $end
 $var wire 1 * clock $end
 $var wire 1 + io_alarm $end
 $var wire 5 , sumDisplay $end
 $var wire 1 - REG $end
 $var wire 1 . io_releaseCan $end
 $var wire 1 / reset $end
$upscope $end
$enddefinitions $end
$dumpvars
b0000000 #
b0000000 "
0!
b00 (
0$
b00000 '
0%
0&
b00000 )
0*
0+
b00000 ,
0-
0.
0/
$end
#0
b1111111 "
b11 (
1/
#1
b1111110 "
b0000001 #
b00001 )
1*
b00001 ,
#6
b00111 '
0*
0/
#11
1*
#16
0*
#21
1*
#26
0*
#31
1*
#36
1&
0*
#41
b1111100 "
b0000011 #
b00011 )
1*
b00011 ,
1-
#46
0*
#51
1*
#56
0*
#61
1*
#66
0&
0*
#71
1*
0-
#76
0*
#81
1*
#86
0*
#91
1*
#96
0*
#101
1*
#106
0*
#111
1*
#116
0*
#121
1*
#126
1%
0*
#131
1!
b1110111 "
b0001000 #
b01000 )
1*
b01000 ,
#136
0*
#141
1*
#146
0*
#151
1*
#156
0%
0*
#161
0!
1*
#166
0*
#171
1*
#176
0*
#181
1*
#186
0*
#191
1*
#196
0*
#201
1*
#206
0*
#211
1*
#216
0*
#221
1*
#226
0*
#231
1*
#236
b1111111 "
b0000000 #
1$
0*
b00000 ,
1.
#241
b00001 )
1*
1+
0.
#246
0*
#251
1*
#256
0*
#261
1*
#266
b1111110 "
b0000001 #
0$
0*
0+
b00001 ,
#271
1*
#276
0*
#281
1*
#286
0*
#291
1*
#296
0*
#301
1*
#306
0*
#311
1*
#316
0*
#321
1*
#326
0*
#331
1*
#336
0*
#341
1*
#346
0*
#351
1*
#356
0*
#361
1*
#366
b00000 '
0*
